[
    {
        "nama_cabang": "BRUP",
        "alamat_cabang": "Pati"
    },
    {
        "nama_cabang": "BRUS",
        "alamat_cabang": "Solo"
    },
    {
        "nama_cabang": "BRUJ",
        "alamat_cabang": "Jakarta"
    },
    {
        "nama_cabang": "BRUS",
        "alamat_cabang": "Semarang"
    },
    {
        "nama_cabang": "BCAP",
        "alamat_cabang": "Pati"
    },
    {
        "nama_cabang": "BCAS",
        "alamat_cabang": "Solo"
    }
]