[
    {
        "nama_nasabah": "rizal",
        "alamat_nasabah": "kudus",
        "password": "hbo123"
    },
    {
        "nama_nasabah": "zal",
        "alamat_nasabah": "kudus",
        "password": "09iya"
    },
    {
        "nama_nasabah": "taqim",
        "alamat_nasabah": "kudus",
        "password": "hnfi"
    }
]